TEAM-C
…
#From the the results we can see that every variable is marke dwith a <fct> which states they are all indeed changed to factors

#every variable we have is categorical, so we need to see the number of categories we are talking about
numClass <- function(x){
  x <- length(levels(x))
}
x <- mushrooms %>% map_dbl(function(.x) numClass(.x)) %>% as_tibble() %>% 
  rownames_to_column() %>% arrange(desc(value))
colnames(x) <- c("Variable name", "Number of levels")
print(x)

## # A tibble: 23 x 2
##    `Variable name`        `Number of levels`
##    <chr>                               <dbl>
##  1 gill_color                             12
##  2 cap_color                              10
##  3 stalk_color_above_ring                 10
##  4 stalk_color_below_ring                 10
##  5 odor                                    9
##  6 spore_print_color                       9
##  7 habitat                                 7
##  8 cap_shape                               6
##  9 population                              6
## 10 stalk_root                              5
## # ... with 13 more rows
…
